{
    "builders": [
        {
            "boot_wait": "6m",
            "communicator": "winrm",
            "cpus": 2,
            "disk_adapter_type": "nvme",
            "disk_size": "{{user `disk_size`}}",
            "disk_type_id": "{{user `disk_type_id`}}",
            "floppy_files": [
                "{{user `autounattend`}}",
                "./setup/fixnetwork.ps1",
                "./setup/disable-screensaver.ps1",
                "./setup/disable-winrm.ps1",
                "./setup/enable-winrm.ps1",
                "./setup/microsoft-updates.bat",
                "./setup/win-updates.ps1",
                ".setup/vm-guest-tools.ps1"
            ],
            "guest_os_type": "windows9-64",
            "headless": "{{user `headless`}}",
            "iso_checksum": "{{user `iso_checksum`}}",
            "iso_url": "{{user `iso_url`}}",
            "memory": "{{user `memory`}}",
            "shutdown_command": "shutdown /s /t 10 /f /d p:4:1 /c \"Packer Shutdown\"",
            "type": "vmware-iso",
            "version": "{{user `vmx_version`}}",
            "vm_name": "{{user `vm_name`}}",
            "vmx_data": {
                "RemoteDisplay.vnc.enabled": "false",
                "RemoteDisplay.vnc.port": "5900"
            },
            "vmx_remove_ethernet_interfaces": true,
            "vnc_port_max": 5980,
            "vnc_port_min": 5900,
            "winrm_password": "vagrant",
            "winrm_timeout": "{{user `winrm_timeout`}}",
            "winrm_username": "vagrant"
        }
    ],
    "post-processors": [
        {
            "keep_input_artifact": false,
            "output": "windows_10_{{.Provider}}.box",
            "type": "vagrant",
            "vagrantfile_template": "vagrantfile-windows_10.template"
        }
    ],
    "provisioners": [
        {
            "execute_command": "{{ .Vars }} cmd /c \"{{ .Path }}\"",
            "remote_path": "/tmp/script.bat",
            "scripts": [
                "./setup/enable-rdp.bat"
            ],
            "type": "windows-shell"
        },
        {
            "scripts": [
                "./setup/vm-guest-tools.ps1",
                "./setup/debloat-windows.ps1"
            ],
            "type": "powershell"
        },
        {
            "restart_timeout": "{{user `restart_timeout`}}",
            "type": "windows-restart"
        },
        {
            "scripts": [
                "./setup/set-powerplan.ps1",
                "./setup/disable-windows-defender.ps1"
            ],
            "type": "powershell"
        },
        {
            "execute_command": "{{ .Vars }} cmd /c \"{{ .Path }}\"",
            "remote_path": "/tmp/script.bat",
            "scripts": [
                "./setup/pin-powershell.bat",
                "./setup/compile-dotnet-assemblies.bat",
                "./setup/set-winrm-automatic.bat",
                "./setup/uac-enable.bat",
                "./setup/dis-updates.bat",
                "./setup/compact.bat"
            ],
            "type": "windows-shell"
        }
    ],
    "variables": {
        "autounattend": "./setup/Autounattend.xml",
        "disk_size": "61440",
        "disk_type_id": "1",
        "memory": "2048",
        "headless": "false",
        "iso_checksum": "EF7312733A9F5D7D51CFA04AC497671995674CA5E1058D5164D6028F0938D668",
        "iso_url": "C:/Users/davidh/Desktop/images/Windows10_Ent.iso",
        "restart_timeout": "5m",
        "vhv_enable": "false",
        "virtio_win_iso": "~/virtio-win.iso",
        "vm_name": "windows_10",
        "winrm_timeout": "6h",
        "vmx_version": "19"
    }
}